[
  {
    "name": "index",
    "path": "/",
    "component": "C:\\\\U\\\\Code\\\\Code\\\\Nuxt\\\\pdtemplatenuxt2test\\\\src\\\\pages\\\\index.vue",
    "chunkName": "pages/index",
    "_name": "_35ac599c"
  }
]
